{
    "id": "methodgroup_trigger__text3_boolean1",
    
    "title": {
      "en": "Method with Arguments (3 texts, 1 boolean) conditions as [[conditioncardsmode]] and [[actioncardsmode]]"
    },
    "args": [
      {
          "type" : "device",
          "name" : "device",
          "filter": "driver_id=methodgroup"
      },
      {
          "type": "dropdown",
          "name": "conditioncardsmode",
          "placeholder": {
              "en": "Conditioncard mode"
          },
          "values": [
              {
                  "id": "if-or-or",
                  "name": "if-or-or",
                  "label": {
                    "en": "If-Or-Or (Default)"
                  }
              },{
                  "id": "if-or-finally",
                  "name": "if-or-finally",
                  "label": {
                    "en": "If-Or-Finally"
                  }
              },{
                "id": "try-catch-finally",
                "name": "try-catch-finally",
                "label": {
                  "en": "Try-Catch-Finally"
                }
              }
          ]
      },
      {
          "type": "dropdown",
          "name": "actioncardsmode",
          "placeholder": {
              "en": "Actioncard mode"
          },
          "values": [
              {
                  "id": "async",
                  "name": "async",
                  "label": {
                    "en": "Executing actioncards asynchronously (default)"
                  }
              },{
                  "id": "sync",
                  "name": "sync",
                  "label": {
                    "en": "Executing actioncards synchronously"
                  }
              }
          ]
      }
    ],
    "tokens": [
      {
        "name": "text_1",
        "type": "string",
        "title": {
          "en": "text1"
        }
      },
      {
        "name": "text_1_hasvalue",
        "type": "boolean",
        "title": {
          "en": "text1 has value"
        }
      },
      {
        "name": "text_2",
        "type": "string",
        "title": {
          "en": "text2"
        }
      },
      {
        "name": "text_2_hasvalue",
        "type": "boolean",
        "title": {
          "en": "text2 has value"
        }
      },
      {
        "name": "text_3",
        "type": "string",
        "title": {
          "en": "text3"
        }
      },
      {
        "name": "text_3_hasvalue",
        "type": "boolean",
        "title": {
          "en": "text3 has value"
        }
      }
      ,
      {
        "name": "boolean_1",
        "type": "boolean",
        "title": {
          "en": "boolean1"
        }
      },
      {
        "name": "boolean_1_hasvalue",
        "type": "boolean",
        "title": {
          "en": "boolean1 has value"
        }
      }
    ]    
    
  }