{
    "id":"triggercards_trigger__",
    "title" : {
        "en":"Trigger without arguments"
    },"titleFormatted" : {
        "en":"Trigger when [[card]] conditions as [[conditioncardsmode]] and [[actioncardsmode]]"
    },
    "args": [
        {
            "type" : "device",
            "name" : "device",
            "filter": "driver_id=triggercards"
        },        
        {
            "type": "autocomplete",
            "name": "card",
            "placeholder": {
                "en": "Type in the app or device name"
            }        
        },
        {
            "type": "dropdown",
            "name": "conditioncardsmode",
            "placeholder": {
                "en": "Conditioncard mode"
            },
            "values": [
                {
                    "id": "if-or-or",
                    "name": "if-or-or",
                    "label": {
                      "en": "If-Or-Or (Default)"
                    }
                },{
                    "id": "if-or-finally",
                    "name": "if-or-finally",
                    "label": {
                      "en": "If-Or-Finally"
                    }
                },{
                  "id": "try-catch-finally",
                  "name": "try-catch-finally",
                  "label": {
                    "en": "Try-Catch-Finally"
                  }
                }
            ]
        },
        {
            "type": "dropdown",
            "name": "actioncardsmode",
            "placeholder": {
                "en": "Actioncard mode"
            },
            "values": [
                {
                    "id": "async",
                    "name": "async",
                    "label": {
                      "en": "Executing actioncards asynchronously (default)"
                    }
                },{
                    "id": "sync",
                    "name": "sync",
                    "label": {
                      "en": "Executing actioncards synchronously"
                    }
                }
            ]
        }
    ],
    "tokens": [
        {
          "name": "text_1",
          "type": "string",
          "title": {
            "en": "text1"
          }
        },
        {
          "name": "text_1_hasvalue",
          "type": "boolean",
          "title": {
            "en": "text1 has value"
          }
        },
        {
          "name": "text_2",
          "type": "string",
          "title": {
            "en": "text2"
          }
        },
        {
          "name": "text_2_hasvalue",
          "type": "boolean",
          "title": {
            "en": "text2 has value"
          }
        },
        {
          "name": "text_3",
          "type": "string",
          "title": {
            "en": "text3"
          }
        },
        {
          "name": "text_3_hasvalue",
          "type": "boolean",
          "title": {
            "en": "text3 has value"
          }
        },
        {
          "name": "text_4",
          "type": "string",
          "title": {
            "en": "text4"
          }
        },
        {
          "name": "text_4_hasvalue",
          "type": "boolean",
          "title": {
            "en": "text4 has value"
          }
        },
        {
          "name": "boolean_1",
          "type": "boolean",
          "title": {
            "en": "boolean1"
          }
        },
        {
          "name": "boolean_1_hasvalue",
          "type": "boolean",
          "title": {
            "en": "boolean1 has value"
          }
        },
        {
          "name": "boolean_2",
          "type": "boolean",
          "title": {
            "en": "boolean2"
          }
        },
        {
          "name": "boolean_2_hasvalue",
          "type": "boolean",
          "title": {
            "en": "boolean2 has value"
          }
        },
        {
          "name": "boolean_3",
          "type": "boolean",
          "title": {
            "en": "boolean3"
          }
        },
        {
          "name": "boolean_3_hasvalue",
          "type": "boolean",
          "title": {
            "en": "boolean3 has value"
          }
        },
        {
          "name": "number_1",
          "type": "number",
          "title": {
            "en": "number1"
          }
        },
        {
          "name": "number_1_hasvalue",
          "type": "boolean",
          "title": {
            "en": "number1 has value"
          }
        },
        {
          "name": "number_2",
          "type": "number",
          "title": {
            "en": "number2"
          }
        },
        {
          "name": "number_2_hasvalue",
          "type": "boolean",
          "title": {
            "en": "number2 has value"
          }
        },
        {
          "name": "number_3",
          "type": "number",
          "title": {
            "en": "number3"
          }
        },
        {
          "name": "number_3_hasvalue",
          "type": "boolean",
          "title": {
            "en": "number3 has value"
          }
        }
      ]  
}