{
    "id":"actioncards_condition__boolean1_number1",
    "title" : {
        "en":"Action with 1 boolean, 1 number !{{|and continue when not successful }}"
    },"titleFormatted" : {
        "en":"Await [[card]] (boolean1:[[boolean_1]], number1:[[number_1]]) !{{|and continue when not successful }}"
    },
    "args": [
        {
            "type" : "device",
            "name" : "device",
            "filter": "driver_id=actioncards"
        },        
        {
            "type": "autocomplete",
            "name": "card",
            "placeholder": {
                "en": "Type in the app or device name"
            }
        },
        {
            "type": "text",
            "name": "boolean_1",
            "placeholder": {
                "en": "boolean1"
            }            
        },
        {
            "type": "number",
            "name": "number_1",
            "placeholder": {
                "en": "number1"
            }            
        }
    ]
}