{
    "id":"actioncards_condition__text1",
    "title" : {
        "en":"Action with 1 text !{{|and continue when not successful }}"
    },"titleFormatted" : {
        "en":"Await [[card]] (text1:[[text_1]]) !{{|and continue when not successful }}"
    },
    "args": [
        {
            "type" : "device",
            "name" : "device",
            "filter": "driver_id=actioncards"
        },        
        {
            "type": "autocomplete",
            "name": "card",
            "placeholder": {
                "en": "Type in the app or device name"
            }
        },
        {
        "type": "text",
        "name": "text_1",
        "placeholder": {
            "en": "text1"
        }            
        }
    ]
}