{
    "id":"app_condition__throw",
    "title" : {
        "en":"Throw an error"        
    },"titleFormatted" : {
        "en":"Throw [[message]]"
    },
    "args": [
        {
            "type": "text",
            "name": "message",
            "placeholder": {
                "en": "Message"
            }
        }
    ]
}