{
    "id":"flowdirector_condition___then",
    "title" : {
        "en":"Then"
    },"titleFormatted" : {
        "en":"THEN"
    },
    "args": [
        {
            "type" : "device",
            "name" : "device",
            "filter": "driver_id=flowdirector"
        }
    ]
}