{
    "id":"flowdirector_condition___endif",
    "title" : {
        "en":"End If"
    },"titleFormatted" : {
        "en":"END IF"
    },
    "args": [
        {
            "type" : "device",
            "name" : "device",
            "filter": "driver_id=flowdirector"
        }
    ]
}