{
    "id":"flowdirector_condition___else",
    "title" : {
        "en":"Else"
    },"titleFormatted" : {
        "en":"ELSE"
    },
    "args": [
        {
            "type" : "device",
            "name" : "device",
            "filter": "driver_id=flowdirector"
        }
    ]
}