{
    "id":"methodgroup_condition__text2",
    "title" : {
        "en":"Await Method with Arguments (2 texts)"
    },"titleFormatted" : {
        "en":"Await [[flow]] (text1:[[text_1]], text2:[[text_2]]) !{{|and continue when not successful }} "
    },
    "args": [
        {
            "type" : "device",
            "name" : "device",
            "filter": "driver_id=methodgroup"
        },
        {
            "type": "autocomplete",
            "name": "flow",
            "placeholder": {
                "en": "Flow",
                "nl": "Flow"
            }
        },
        {
            "type": "text",
            "name": "text_1",
            "placeholder": {
                "en": "text1"
            }            
        },
        {
            "type": "text",
            "name": "text_2",
            "placeholder": {
                "en": "text2"
            }            
        }
    ]
}