{
    "id":"triggercards_condition__boolean1",
    "title" : {
        "en":"Trigger with 1 boolean"
    },"titleFormatted" : {
        "en":"Trigger when [[card]] (boolean1:[[boolean_1]])"
    },
    "hint":{
        "en":"Place this card before any other conditional cards"
    },
    "args": [
        {
            "type" : "device",
            "name" : "device",
            "filter": "driver_id=triggercards"
        },        
        {
            "type": "autocomplete",
            "name": "card",
            "placeholder": {
                "en": "Type in the app or device name"
            }        
        },
        {
            "type": "text",
            "name": "boolean_1",
            "placeholder": {
                "en": "boolean1"
            }            
        }
      ]  
}