{
    "id":"methodgroup_action__text3_boolean1",
    "title" : {
        "en":"Start Method with Arguments (3 texts, 1 boolean)"
    },
    "titleFormatted" : {
        "en":"Start [[flow]] (text1:[[text_1]], text2:[[text_2]], text3:[[text_3]], boolean1:[[boolean_1]])"
    },
    "args": [
        {
            "type" : "device",
            "name" : "device",
            "filter": "driver_id=methodgroup"
        },
        {
            "type": "autocomplete",
            "name": "flow",
            "placeholder": {
                "en": "Flow",
                "nl": "Flow"
            }
        },
        {
            "type": "text",
            "name": "text_1",
            "placeholder": {
                "en": "text1"
            }            
        },
        {
            "type": "text",
            "name": "text_2",
            "placeholder": {
                "en": "text2"
            }            
        },
        {
            "type": "text",
            "name": "text_3",
            "placeholder": {
                "en": "text3"
            }            
        },
        {
            "type": "text",
            "name": "boolean_1",
            "placeholder": {
                "en": "boolean1 - true/false"
            }
        }
    ]
}