{
    "id":"methodgroup_action__text3_number1",
    "title" : {
        "en":"Start Method with Arguments (3 texts, 1 number)",
        "nlnotyet" : "Start [[flow]] (text1:[[text_1]], text2:[[text_2]], text3:[[text_3]], number1:[[number_1]])"
    },"titleFormatted" : {
        "en":"Start [[flow]] (text1:[[text_1]], text2:[[text_2]], text3:[[text_3]], number1:[[number_1]])"
    },
    "args": [
        {
            "type" : "device",
            "name" : "device",
            "filter": "driver_id=methodgroup"
        },
        {
            "type": "autocomplete",
            "name": "flow",
            "placeholder": {
                "en": "Flow",
                "nl": "Flow"
            }
        },
        {
            "type": "text",
            "name": "text_1",
            "placeholder": {
                "en": "text1"
            }            
        },
        {
            "type": "text",
            "name": "text_2",
            "placeholder": {
                "en": "text2"
            }            
        },
        {
            "type": "text",
            "name": "text_3",
            "placeholder": {
                "en": "text3"
            }            
        },
        {
            "type": "number",
            "name": "number_1",
            "placeholder": {
                "en": "number1"
            }            
        }
    ]
}