{
  "id": "methodgroup",
  "name": {
    "en": "Method Group"
  },
  "class": "other",
  "capabilities": [],
  "images": {
    "large": "/drivers/methodgroup/assets/images/large.png",
    "small": "/drivers/methodgroup/assets/images/small.png"
  },
  "pair": [
    {
      "id": "list_devices",
      "template": "list_devices",
      "navigation": {
        "next": "add_my_devices"
      },
      "options": {
        "singular": true
      }
    },
    {
      "id": "add_my_devices",
      "template": "add_devices"
    }
  ],      
  "settings": [
    {
      "id": "overloading",
      "type": "dropdown",
      "label": {
        "en": "Overloading"
      },
      "value": "false",
      "hint": {
        "en": "Overloading (as a method overloading); If so, a actioncard for one argument can also fire a trigger with more then one argument"
      },
      "values": [
        {
          "id": "true",
          "name": "true",
          "label": {
            "en": "Yes",
            "nl": "Ja"
          }
        },
        {
          "id": "false",
          "name": "false",
          "label": {
            "en": "No",
            "nl": "Nee"
          }
        }
      ]
    }
  ]
  
}